<ProcessTaskLog StartTime="7/19/2017 12:42:21 PM" ProcessUrl="http://localhost:8080/search_analytics_reporting/rdProcess.aspx?rdCaller=rdScheduler&amp;rdProcess=DST_Logi_Scheduler.ScheduledTasks_MYSQL&amp;rdTaskID=ExportPDF&amp;rdSchedulerKey=A758-C94A7-316C-4D475-7A7F-B6C36&amp;rdRunAs=" Result="Failure" EndTime="7/19/2017 12:43:11 PM">
  <Source>
    <ProcessTask ProcessFile="DST_Logi_Scheduler.ScheduledTasks_MYSQL" TaskID="ExportPDF" URL="http://localhost:8080/search_analytics_reporting" rdSchedulerTaskID="6" rdSchedulerThreadKey="6:7ae0436d-6387-4572-aab2-a073099718ee" rdSchedulerWatcherThreadKey="6:b9fe0177-95a2-49a0-805f-92207fc8dfb0">
      <LinkParams />
    </ProcessTask>
  </Source>
  <TaskResults ErrorMsg="System.Exception: Error running a Procedure. ---&gt; System.Exception: Could not connect to SMTP host: smtp-mail.outlook.com, port: 465&#xD;&#xA;	at clr.System.ExceptionStaticWrapper.ExceptionCtor(Exception.jvm.cs:38)&#xA;	at rdServer.rdSendMail.SendMail(Unknown Source)&#xA;	at rdServer.rdProcedure.Run(Unknown Source)&#xA;	at rdServer.rdTask.Run(Unknown Source)&#xA;	at rdServer.ActionProcessor.ProcessAction(Unknown Source)&#xA;	at ASP.rdprocess_aspx.__Render__control1(rdProcess.aspx:5)&#xA;	at ASP.rdprocess_aspx$__Impl0.Invoke(Unknown Source)&#xA;	at system.Web.UI.Control.RenderChildren(Control.cs:1101)&#xA;	at system.Web.UI.Control.Render(Control.cs:1090)&#xA;	at system.Web.UI.Page.Render(Page.cs:1095)&#xA;	at system.Web.UI.Control.RenderControl(Control.cs:1254)&#xA;	at system.Web.UI.Page.RenderPage(Page.cs:1621)&#xA;	at system.Web.UI.Page.encodeChildren(Page.jvm.cs:159)&#xA;	at Mainsoft.Web.Hosting.BaseFacesViewHandler.renderView(BaseFacesViewHandler.cs:58)&#xA;	at org.apache.myfaces.lifecycle.RenderResponseExecutor.execute(RenderResponseExecutor.java:41)&#xA;	at org.apache.myfaces.lifecycle.LifecycleImpl.render(LifecycleImpl.java:132)&#xA;	at Mainsoft.Web.Hosting.ServletFacesPageHandler.ProcessRequest(ServletFacesPageHandler.cs:116)&#xA;	at Mainsoft.Web.Hosting.SessionWrapper$SessionWrapperHandler.ProcessRequest(SessionWrapper.cs:40)&#xA;	at system.Web.HttpApplication$Pipelined__8.MoveNext$Z$$_$Pipeline$_$d__8$$(HttpApplication.cs:1033)&#xA;	at system.Web.HttpApplication.Tick(HttpApplication.cs:705)&#xA;	at system.Web.HttpApplication.Start(HttpApplication.cs:1217)&#xA;	at system.Web.HttpApplication.System_Web_IHttpAsyncHandler_BeginProcessRequest(HttpApplication.cs:1319)&#xA;	at system.Web.HttpRuntime.RealProcessRequest(HttpRuntime.cs:482)&#xA;	at system.Web.HttpRuntime.ProcessRequest(HttpRuntime.cs:523)&#xA;	at Mainsoft.Web.Hosting.BaseHttpServlet.service(BaseHttpServlet.cs:200)&#xA;	at javax.servlet.http.HttpServlet.service(HttpServlet.java:742)&#xA;	at org.apache.catalina.core.ApplicationFilterChain.internalDoFilter(ApplicationFilterChain.java:231)&#xA;	at org.apache.catalina.core.ApplicationFilterChain.doFilter(ApplicationFilterChain.java:166)&#xA;	at org.apache.tomcat.websocket.server.WsFilter.doFilter(WsFilter.java:52)&#xA;	at org.apache.catalina.core.ApplicationFilterChain.internalDoFilter(ApplicationFilterChain.java:193)&#xA;	at org.apache.catalina.core.ApplicationFilterChain.doFilter(ApplicationFilterChain.java:166)&#xA;	at org.apache.catalina.core.StandardWrapperValve.invoke(StandardWrapperValve.java:198)&#xA;	at org.apache.catalina.core.StandardContextValve.invoke(StandardContextValve.java:96)&#xA;	at org.apache.catalina.authenticator.AuthenticatorBase.invoke(AuthenticatorBase.java:478)&#xA;	at org.apache.catalina.core.StandardHostValve.invoke(StandardHostValve.java:140)&#xA;	at org.apache.catalina.valves.ErrorReportValve.invoke(ErrorReportValve.java:80)&#xA;	at org.apache.catalina.valves.AbstractAccessLogValve.invoke(AbstractAccessLogValve.java:624)&#xA;	at org.apache.catalina.core.StandardEngineValve.invoke(StandardEngineValve.java:87)&#xA;	at org.apache.catalina.connector.CoyoteAdapter.service(CoyoteAdapter.java:342)&#xA;	at org.apache.coyote.http11.Http11Processor.service(Http11Processor.java:799)&#xA;	at org.apache.coyote.AbstractProcessorLight.process(AbstractProcessorLight.java:66)&#xA;	at org.apache.coyote.AbstractProtocol$ConnectionHandler.process(AbstractProtocol.java:868)&#xA;	at org.apache.tomcat.util.net.NioEndpoint$SocketProcessor.doRun(NioEndpoint.java:1455)&#xA;	at org.apache.tomcat.util.net.SocketProcessorBase.run(SocketProcessorBase.java:49)&#xA;	at java.util.concurrent.ThreadPoolExecutor.runWorker(ThreadPoolExecutor.java:1142)&#xA;	at java.util.concurrent.ThreadPoolExecutor$Worker.run(ThreadPoolExecutor.java:617)&#xA;	at org.apache.tomcat.util.threads.TaskThread$WrappingRunnable.run(TaskThread.java:61)&#xA;	at java.lang.Thread.run(Thread.java:748)&#xA;&#xD;&#xA;	at clr.System.ExceptionStaticWrapper.ExceptionCtor(Exception.jvm.cs:38)&#xA;	at rdServer.rdSendMail.SendMail(Unknown Source)&#xA;	at rdServer.rdProcedure.Run(Unknown Source)&#xA;	at rdServer.rdTask.Run(Unknown Source)&#xA;	at rdServer.ActionProcessor.ProcessAction(Unknown Source)&#xA;	at ASP.rdprocess_aspx.__Render__control1(rdProcess.aspx:5)&#xA;	at ASP.rdprocess_aspx$__Impl0.Invoke(Unknown Source)&#xA;	at system.Web.UI.Control.RenderChildren(Control.cs:1101)&#xA;	at system.Web.UI.Control.Render(Control.cs:1090)&#xA;	at system.Web.UI.Page.Render(Page.cs:1095)&#xA;	at system.Web.UI.Control.RenderControl(Control.cs:1254)&#xA;	at system.Web.UI.Page.RenderPage(Page.cs:1621)&#xA;	at system.Web.UI.Page.encodeChildren(Page.jvm.cs:159)&#xA;	at Mainsoft.Web.Hosting.BaseFacesViewHandler.renderView(BaseFacesViewHandler.cs:58)&#xA;	at org.apache.myfaces.lifecycle.RenderResponseExecutor.execute(RenderResponseExecutor.java:41)&#xA;	at org.apache.myfaces.lifecycle.LifecycleImpl.render(LifecycleImpl.java:132)&#xA;	at Mainsoft.Web.Hosting.ServletFacesPageHandler.ProcessRequest(ServletFacesPageHandler.cs:116)&#xA;	at Mainsoft.Web.Hosting.SessionWrapper$SessionWrapperHandler.ProcessRequest(SessionWrapper.cs:40)&#xA;	at system.Web.HttpApplication$Pipelined__8.MoveNext$Z$$_$Pipeline$_$d__8$$(HttpApplication.cs:1033)&#xA;	at system.Web.HttpApplication.Tick(HttpApplication.cs:705)&#xA;	at system.Web.HttpApplication.Start(HttpApplication.cs:1217)&#xA;	at system.Web.HttpApplication.System_Web_IHttpAsyncHandler_BeginProcessRequest(HttpApplication.cs:1319)&#xA;	at system.Web.HttpRuntime.RealProcessRequest(HttpRuntime.cs:482)&#xA;	at system.Web.HttpRuntime.ProcessRequest(HttpRuntime.cs:523)&#xA;	at Mainsoft.Web.Hosting.BaseHttpServlet.service(BaseHttpServlet.cs:200)&#xA;	at javax.servlet.http.HttpServlet.service(HttpServlet.java:742)&#xA;	at org.apache.catalina.core.ApplicationFilterChain.internalDoFilter(ApplicationFilterChain.java:231)&#xA;	at org.apache.catalina.core.ApplicationFilterChain.doFilter(ApplicationFilterChain.java:166)&#xA;	at org.apache.tomcat.websocket.server.WsFilter.doFilter(WsFilter.java:52)&#xA;	at org.apache.catalina.core.ApplicationFilterChain.internalDoFilter(ApplicationFilterChain.java:193)&#xA;	at org.apache.catalina.core.ApplicationFilterChain.doFilter(ApplicationFilterChain.java:166)&#xA;	at org.apache.catalina.core.StandardWrapperValve.invoke(StandardWrapperValve.java:198)&#xA;	at org.apache.catalina.core.StandardContextValve.invoke(StandardContextValve.java:96)&#xA;	at org.apache.catalina.authenticator.AuthenticatorBase.invoke(AuthenticatorBase.java:478)&#xA;	at org.apache.catalina.core.StandardHostValve.invoke(StandardHostValve.java:140)&#xA;	at org.apache.catalina.valves.ErrorReportValve.invoke(ErrorReportValve.java:80)&#xA;	at org.apache.catalina.valves.AbstractAccessLogValve.invoke(AbstractAccessLogValve.java:624)&#xA;	at org.apache.catalina.core.StandardEngineValve.invoke(StandardEngineValve.java:87)&#xA;	at org.apache.catalina.connector.CoyoteAdapter.service(CoyoteAdapter.java:342)&#xA;	at org.apache.coyote.http11.Http11Processor.service(Http11Processor.java:799)&#xA;	at org.apache.coyote.AbstractProcessorLight.process(AbstractProcessorLight.java:66)&#xA;	at org.apache.coyote.AbstractProtocol$ConnectionHandler.process(AbstractProtocol.java:868)&#xA;	at org.apache.tomcat.util.net.NioEndpoint$SocketProcessor.doRun(NioEndpoint.java:1455)&#xA;	at org.apache.tomcat.util.net.SocketProcessorBase.run(SocketProcessorBase.java:49)&#xA;	at java.util.concurrent.ThreadPoolExecutor.runWorker(ThreadPoolExecutor.java:1142)&#xA;	at java.util.concurrent.ThreadPoolExecutor$Worker.run(ThreadPoolExecutor.java:617)&#xA;	at org.apache.tomcat.util.threads.TaskThread$WrappingRunnable.run(TaskThread.java:61)&#xA;	at java.lang.Thread.run(Thread.java:748)&#xA;   --- End of inner exception stack trace ---&#xD;&#xA;	at clr.System.ExceptionStaticWrapper.ExceptionCtor(Exception.jvm.cs:45)&#xA;	at rdServer.rdProcedure.Run(Unknown Source)&#xA;	at rdServer.rdTask.Run(Unknown Source)&#xA;	at rdServer.ActionProcessor.ProcessAction(Unknown Source)&#xA;	at ASP.rdprocess_aspx.__Render__control1(rdProcess.aspx:5)&#xA;	at ASP.rdprocess_aspx$__Impl0.Invoke(Unknown Source)&#xA;	at system.Web.UI.Control.RenderChildren(Control.cs:1101)&#xA;	at system.Web.UI.Control.Render(Control.cs:1090)&#xA;	at system.Web.UI.Page.Render(Page.cs:1095)&#xA;	at system.Web.UI.Control.RenderControl(Control.cs:1254)&#xA;	at system.Web.UI.Page.RenderPage(Page.cs:1621)&#xA;	at system.Web.UI.Page.encodeChildren(Page.jvm.cs:159)&#xA;	at Mainsoft.Web.Hosting.BaseFacesViewHandler.renderView(BaseFacesViewHandler.cs:58)&#xA;	at org.apache.myfaces.lifecycle.RenderResponseExecutor.execute(RenderResponseExecutor.java:41)&#xA;	at org.apache.myfaces.lifecycle.LifecycleImpl.render(LifecycleImpl.java:132)&#xA;	at Mainsoft.Web.Hosting.ServletFacesPageHandler.ProcessRequest(ServletFacesPageHandler.cs:116)&#xA;	at Mainsoft.Web.Hosting.SessionWrapper$SessionWrapperHandler.ProcessRequest(SessionWrapper.cs:40)&#xA;	at system.Web.HttpApplication$Pipelined__8.MoveNext$Z$$_$Pipeline$_$d__8$$(HttpApplication.cs:1033)&#xA;	at system.Web.HttpApplication.Tick(HttpApplication.cs:705)&#xA;	at system.Web.HttpApplication.Start(HttpApplication.cs:1217)&#xA;	at system.Web.HttpApplication.System_Web_IHttpAsyncHandler_BeginProcessRequest(HttpApplication.cs:1319)&#xA;	at system.Web.HttpRuntime.RealProcessRequest(HttpRuntime.cs:482)&#xA;	at system.Web.HttpRuntime.ProcessRequest(HttpRuntime.cs:523)&#xA;	at Mainsoft.Web.Hosting.BaseHttpServlet.service(BaseHttpServlet.cs:200)&#xA;	at javax.servlet.http.HttpServlet.service(HttpServlet.java:742)&#xA;	at org.apache.catalina.core.ApplicationFilterChain.internalDoFilter(ApplicationFilterChain.java:231)&#xA;	at org.apache.catalina.core.ApplicationFilterChain.doFilter(ApplicationFilterChain.java:166)&#xA;	at org.apache.tomcat.websocket.server.WsFilter.doFilter(WsFilter.java:52)&#xA;	at org.apache.catalina.core.ApplicationFilterChain.internalDoFilter(ApplicationFilterChain.java:193)&#xA;	at org.apache.catalina.core.ApplicationFilterChain.doFilter(ApplicationFilterChain.java:166)&#xA;	at org.apache.catalina.core.StandardWrapperValve.invoke(StandardWrapperValve.java:198)&#xA;	at org.apache.catalina.core.StandardContextValve.invoke(StandardContextValve.java:96)&#xA;	at org.apache.catalina.authenticator.AuthenticatorBase.invoke(AuthenticatorBase.java:478)&#xA;	at org.apache.catalina.core.StandardHostValve.invoke(StandardHostValve.java:140)&#xA;	at org.apache.catalina.valves.ErrorReportValve.invoke(ErrorReportValve.java:80)&#xA;	at org.apache.catalina.valves.AbstractAccessLogValve.invoke(AbstractAccessLogValve.java:624)&#xA;	at org.apache.catalina.core.StandardEngineValve.invoke(StandardEngineValve.java:87)&#xA;	at org.apache.catalina.connector.CoyoteAdapter.service(CoyoteAdapter.java:342)&#xA;	at org.apache.coyote.http11.Http11Processor.service(Http11Processor.java:799)&#xA;	at org.apache.coyote.AbstractProcessorLight.process(AbstractProcessorLight.java:66)&#xA;	at org.apache.coyote.AbstractProtocol$ConnectionHandler.process(AbstractProtocol.java:868)&#xA;	at org.apache.tomcat.util.net.NioEndpoint$SocketProcessor.doRun(NioEndpoint.java:1455)&#xA;	at org.apache.tomcat.util.net.SocketProcessorBase.run(SocketProcessorBase.java:49)&#xA;	at java.util.concurrent.ThreadPoolExecutor.runWorker(ThreadPoolExecutor.java:1142)&#xA;	at java.util.concurrent.ThreadPoolExecutor$Worker.run(ThreadPoolExecutor.java:617)&#xA;	at org.apache.tomcat.util.threads.TaskThread$WrappingRunnable.run(TaskThread.java:61)&#xA;	at java.lang.Thread.run(Thread.java:748)&#xA;&#xD;&#xA;" Version="12.2.12.1" />
</ProcessTaskLog>