<ProcessTaskLog StartTime="7/20/2017 10:47:12 AM" ProcessUrl="http://localhost:8080/search_analytics_reporting/rdProcess.aspx?rdCaller=rdScheduler&amp;rdProcess=DST_Logi_Scheduler.ScheduledTasks_MYSQL&amp;rdTaskID=ExportPDF&amp;rdSchedulerKey=F2DA-9D42F-7006-6264E-2B12-2FA19&amp;rdRunAs=" Result="Success" EndTime="7/20/2017 10:47:28 AM">
  <Source>
    <ProcessTask ProcessFile="DST_Logi_Scheduler.ScheduledTasks_MYSQL" TaskID="ExportPDF" URL="http://localhost:8080/search_analytics_reporting" rdSchedulerTaskID="8" rdSchedulerThreadKey="8:962d930f-0578-434b-b50c-1d979431392e" rdSchedulerWatcherThreadKey="8:a08cefd5-059a-4b21-a068-b18e94a58a48">
      <LinkParams />
    </ProcessTask>
  </Source>
  <TaskResults Response="OK" Version="12.2.12.1" />
</ProcessTaskLog>