<ProcessTaskLog StartTime="7/19/2017 1:06:54 PM" ProcessUrl="http://localhost:8080/search_analytics_reporting/rdProcess.aspx?rdCaller=rdScheduler&amp;rdProcess=DST_Logi_Scheduler.ScheduledTasks_MYSQL&amp;rdTaskID=ExportPDF&amp;rdSchedulerKey=50C0-B9086-66AB-4EE2B-FA1B-1F4D4&amp;rdRunAs=" Result="Success" EndTime="7/19/2017 1:07:06 PM">
  <Source>
    <ProcessTask ProcessFile="DST_Logi_Scheduler.ScheduledTasks_MYSQL" TaskID="ExportPDF" URL="http://localhost:8080/search_analytics_reporting" rdSchedulerTaskID="6" rdSchedulerThreadKey="6:e9e0d9f9-8005-46fa-9917-6e8ae7cd7932" rdSchedulerWatcherThreadKey="6:d6244663-d03d-45a9-8285-e7394d7e692f">
      <LinkParams />
    </ProcessTask>
  </Source>
  <TaskResults Response="OK" Version="12.2.12.1" />
</ProcessTaskLog>