<ProcessTaskLog StartTime="7/19/2017 12:18:55 PM" ProcessUrl="http://localhost:8080/search_analytics_reporting/rdProcess.aspx?rdCaller=rdScheduler&amp;rdProcess=DST_Logi_Scheduler.ScheduledTasks_MYSQL&amp;rdTaskID=ExportPDF&amp;rdSchedulerKey=B488-2273A-872B-177A3-AE11-0B6EE&amp;rdRunAs=" Result="Success" EndTime="7/19/2017 12:19:26 PM">
  <Source>
    <ProcessTask ProcessFile="DST_Logi_Scheduler.ScheduledTasks_MYSQL" TaskID="ExportPDF" URL="http://localhost:8080/search_analytics_reporting" rdSchedulerTaskID="6" rdSchedulerThreadKey="6:cf214f8d-b207-4cd0-a7fb-ef1ad3d6d7e1" rdSchedulerWatcherThreadKey="6:ebde226c-dd2c-4937-a4cf-2039e81e79a3">
      <LinkParams />
    </ProcessTask>
  </Source>
  <TaskResults Response="OK" Version="12.2.12.1" />
</ProcessTaskLog>